<?xml version="1.0" encoding="UTF-8" standalone="no"?>
<!-- Created with Inkscape (http://www.inkscape.org/) -->

<svg
   xmlns:dc="http://purl.org/dc/elements/1.1/"
   xmlns:cc="http://creativecommons.org/ns#"
   xmlns:rdf="http://www.w3.org/1999/02/22-rdf-syntax-ns#"
   xmlns:svg="http://www.w3.org/2000/svg"
   xmlns="http://www.w3.org/2000/svg"
   xmlns:xlink="http://www.w3.org/1999/xlink"
   xmlns:sodipodi="http://sodipodi.sourceforge.net/DTD/sodipodi-0.dtd"
   xmlns:inkscape="http://www.inkscape.org/namespaces/inkscape"
   id="svg8"
   version="1.1"
   viewBox="0 0 147 207.9"
   height="297mm"
   width="210mm"
   inkscape:export-filename="/home/nicolas/dsc.png"
   inkscape:export-xdpi="90"
   inkscape:export-ydpi="90"
   inkscape:version="0.92.4 (5da689c313, 2019-01-14)"
   sodipodi:docname="logo.svg">
  <defs
     id="defs2" />
  <sodipodi:namedview
     id="base"
     pagecolor="#ffffff"
     bordercolor="#666666"
     borderopacity="1.0"
     inkscape:pageopacity="0"
     inkscape:pageshadow="2"
     inkscape:zoom="0.24748737"
     inkscape:cx="-355.49143"
     inkscape:cy="589.36114"
     inkscape:document-units="mm"
     inkscape:current-layer="layer1"
     showgrid="false"
     inkscape:pagecheckerboard="false"
     fit-margin-top="0"
     fit-margin-left="0"
     fit-margin-right="0"
     fit-margin-bottom="0"
     scale-x="0.7"
     units="mm"
     inkscape:window-width="1366"
     inkscape:window-height="709"
     inkscape:window-x="0"
     inkscape:window-y="0"
     inkscape:window-maximized="1" />
  <metadata
     id="metadata5">
    <rdf:RDF>
      <cc:Work
         rdf:about="">
        <dc:format>image/svg+xml</dc:format>
        <dc:type
           rdf:resource="http://purl.org/dc/dcmitype/StillImage" />
        <dc:title></dc:title>
      </cc:Work>
    </rdf:RDF>
  </metadata>
  <g
     inkscape:label="Layer 1"
     inkscape:groupmode="layer"
     id="layer1"
     transform="translate(48.108521,31.278201)">
    <rect
       style="fill:#000000;fill-opacity:1;stroke:#f6f6f6;stroke-width:1.39999998;stroke-linejoin:bevel;stroke-miterlimit:4;stroke-dasharray:none;stroke-dashoffset:0;stroke-opacity:1"
       id="rect4621"
       width="273.05002"
       height="262.46664"
       x="-110.55019"
       y="-58.328205"
       ry="0" />
    <path
       style="fill:#ffffff;fill-opacity:1;stroke:none;stroke-width:2;stroke-linejoin:bevel;stroke-miterlimit:4;stroke-dasharray:none;stroke-dashoffset:0;stroke-opacity:0.56818183"
       d="m -60.280904,89.723783 a 335.64285,335.64285 0 0 1 151.168644,-4.8271 335.64285,335.64285 0 0 1 16.38247,4.11913 83.910709,83.910709 0 0 0 -14.60429,-47.6891 83.910709,83.910709 0 0 0 -8.70128,-10.664979 83.910709,83.910709 0 0 0 -107.525308,-11.26081 83.910709,83.910709 0 0 0 -36.720236,70.322859 z"
       id="path815"
       inkscape:connector-curvature="0" />
    <g
       aria-label="The Dark Side"
       style="font-style:normal;font-weight:normal;font-size:10.58333302px;line-height:1.25;font-family:sans-serif;letter-spacing:0px;word-spacing:0px;fill:#000000;fill-opacity:1;stroke:none;stroke-width:0.26458332"
       id="text4532">
      <path
         d="m -37.725082,39.990405 9.000038,-5.296302 0.712883,1.211406 -3.776738,2.222518 5.547908,9.427594 -1.446562,0.851266 -5.547908,-9.427594 -3.776738,2.222518 z"
         style="font-size:16.93333244px;text-align:center;text-anchor:middle;fill:#000000;fill-opacity:1;stroke-width:0.26458332"
         id="path4623" />
      <path
         d="m -16.391828,36.377947 2.337289,5.077165 -1.38195,0.636185 -2.316544,-5.032102 q -0.549747,-1.194185 -1.288549,-1.573156 -0.738801,-0.37897 -1.670116,0.04976 -1.119079,0.515172 -1.436526,1.526026 -0.317446,1.010855 0.249589,2.242593 l 2.188615,4.75421 -1.389461,0.639642 -5.379914,-11.686493 1.389461,-0.639642 2.109092,4.581465 q 0.14649,-0.986767 0.642057,-1.670017 0.503077,-0.686708 1.381817,-1.091238 1.449546,-0.667303 2.607999,-0.108327 1.154995,0.551466 1.957141,2.293926 z"
         style="font-size:16.93333244px;text-align:center;text-anchor:middle;fill:#000000;fill-opacity:1;stroke-width:0.26458332"
         id="path4625" />
      <path
         d="m -5.3451982,33.02305 0.2414283,0.703887 -6.6165421,2.269426 q 0.603533,1.453795 1.669526,1.962273 1.0711316,0.497975 2.5023694,0.0071 0.8290231,-0.284349 1.5335533,-0.753266 0.7123513,-0.471598 1.3393146,-1.141178 l 0.4667614,1.36085 q -0.6616097,0.594051 -1.4159749,1.045097 -0.7543653,0.451045 -1.5912093,0.738076 -2.0960205,0.71892 -3.7423885,-0.07999 -1.638548,-0.801596 -2.352103,-2.881975 -0.737697,-2.150767 -0.01208,-3.806959 0.730754,-1.666695 2.701639,-2.342695 1.7675398,-0.606253 3.1837375,0.184197 1.4213361,0.779946 2.0919703,2.735189 z m -1.5839158,0.07125 q -0.420705,-1.175602 -1.311274,-1.656839 -0.882748,-0.483919 -1.9464,-0.119094 -1.20443,0.413111 -1.6984,1.343011 -0.486148,0.927218 -0.171801,2.200487 z"
         style="font-size:16.93333244px;text-align:center;text-anchor:middle;fill:#000000;fill-opacity:1;stroke-width:0.26458332"
         id="path4627" />
      <path
         d="m 3.8422426,24.662997 1.5715682,9.469895 1.9902277,-0.330287 Q 9.9244499,33.384333 10.901345,32.048829 11.886397,30.711972 11.4776,28.248657 11.07151,25.801656 9.7087944,24.862802 8.3528818,23.914438 5.8324704,24.33271 Z M 1.969892,23.582423 5.3549105,23.020665 q 3.5399952,-0.587476 5.4408075,0.614094 1.899458,1.193413 2.419253,4.325575 0.522502,3.148475 -0.896451,4.900973 -1.418953,1.752499 -4.9426352,2.337268 l -3.3850185,0.561758 z"
         style="font-size:16.93333244px;text-align:center;text-anchor:middle;fill:#000000;fill-opacity:1;stroke-width:0.26458332"
         id="path4629" />
      <path
         d="m 20.800841,29.041448 q -1.84168,0.08871 -2.531635,0.544117 -0.689956,0.455403 -0.641024,1.471218 0.03899,0.809347 0.590613,1.262889 0.559488,0.444885 1.476199,0.400728 1.263573,-0.06087 1.980405,-0.9894 0.724693,-0.93719 0.653086,-2.423748 l -0.01631,-0.338604 z m 3.000692,-0.773656 0.254205,5.277279 -1.519593,0.0732 -0.06763,-1.403971 q -0.479718,0.867445 -1.236539,1.309514 -0.757218,0.43381 -1.880395,0.487913 -1.420488,0.06843 -2.301061,-0.683829 -0.872712,-0.76091 -0.937158,-2.098811 -0.07519,-1.560886 0.927212,-2.403841 1.010659,-0.843354 3.083581,-0.943206 l 2.130732,-0.102636 -0.0072,-0.148656 q -0.05052,-1.048849 -0.771699,-1.58528 -0.713315,-0.545087 -1.960372,-0.485016 -0.79283,0.03819 -1.535218,0.264341 -0.742388,0.22615 -1.417815,0.639465 l -0.06763,-1.403971 q 0.818609,-0.362267 1.595623,-0.556974 0.776616,-0.202966 1.519894,-0.23877 2.006853,-0.09667 3.048016,0.896183 1.041164,0.992853 1.143005,3.107068 z"
         style="font-size:16.93333244px;text-align:center;text-anchor:middle;fill:#000000;fill-opacity:1;stroke-width:0.26458332"
         id="path4631" />
      <path
         d="m 32.874139,25.988874 q -0.250191,-0.158908 -0.553242,-0.237173 -0.29446,-0.0862 -0.657974,-0.10067 -1.288823,-0.05132 -2.016357,0.763744 -0.718943,0.807127 -0.781443,2.376847 l -0.194078,4.874393 -1.528411,-0.06086 0.36842,-9.253085 1.528411,0.06086 -0.05724,1.437533 q 0.51273,-0.823613 1.297185,-1.197843 0.784784,-0.382492 1.883588,-0.338742 0.156972,0.0063 0.346004,0.0386 0.189361,0.02409 0.419043,0.07461 z"
         style="font-size:16.93333244px;text-align:center;text-anchor:middle;fill:#000000;fill-opacity:1;stroke-width:0.26458332"
         id="path4633" />
      <path
         d="m 35.733474,21.190141 1.517468,0.192445 -0.955984,7.538125 5.005626,-3.390728 1.927595,0.244457 -5.417391,3.680221 4.457381,5.532619 -1.968607,-0.249658 -4.098226,-5.078683 -0.569014,4.486784 -1.517468,-0.192445 z"
         style="font-size:16.93333244px;text-align:center;text-anchor:middle;fill:#000000;fill-opacity:1;stroke-width:0.26458332"
         id="path4635" />
      <path
         d="m 59.72205,27.209691 -0.464176,1.561302 q -0.781828,-0.706862 -1.5266,-1.161183 -0.744771,-0.45432 -1.497684,-0.678161 -1.307689,-0.388777 -2.171772,-0.09361 -0.856159,0.297522 -1.134193,1.232718 -0.233266,0.784613 0.114164,1.327825 0.357713,0.537643 1.600284,1.174464 l 0.907992,0.485594 q 1.689821,0.873298 2.281009,1.989282 0.60147,1.110414 0.172638,2.552835 -0.511301,1.71981 -1.932305,2.263445 -1.413079,0.545991 -3.640114,-0.116108 -0.840091,-0.24976 -1.734589,-0.722716 -0.886572,-0.4706 -1.790279,-1.14469 l 0.490095,-1.648481 q 0.812243,0.836667 1.664971,1.39209 0.852729,0.555424 1.756223,0.824033 1.371093,0.407627 2.276303,0.09018 0.90521,-0.317441 1.202094,-1.31604 0.259184,-0.871793 -0.133656,-1.523391 Q 55.77754,33.04984 54.630072,32.441295 L 53.711799,31.96127 q -1.685108,-0.88915 -2.259375,-1.887966 -0.574267,-0.998816 -0.171353,-2.354058 0.466533,-1.569227 1.836771,-2.145206 1.378165,-0.573623 3.319885,0.0037 0.832166,0.247404 1.651266,0.654815 0.819099,0.407411 1.633057,0.977185 z"
         style="font-size:16.93333244px;text-align:center;text-anchor:middle;fill:#000000;fill-opacity:1;stroke-width:0.26458332"
         id="path4637" />
      <path
         d="m 62.730117,31.190021 1.4189,0.548854 -3.340847,8.636784 -1.4189,-0.548853 z m 1.300544,-3.362176 1.4189,0.548853 -0.695015,1.79676 -1.418901,-0.548854 z"
         style="font-size:16.93333244px;text-align:center;text-anchor:middle;fill:#000000;fill-opacity:1;stroke-width:0.26458332"
         id="path4639" />
      <path
         d="m 72.665435,37.091379 2.171195,-4.515694 1.371102,0.659241 -5.574883,11.594752 -1.371102,-0.659241 0.601916,-1.251875 q -0.790478,0.537359 -1.629233,0.583618 -0.82772,0.04239 -1.751724,-0.401881 -1.512682,-0.727315 -1.886074,-2.393082 -0.36594,-1.662185 0.579927,-3.629418 0.945867,-1.967233 2.472644,-2.71938 1.534228,-0.748563 3.046911,-0.02125 0.924003,0.444271 1.404189,1.12469 0.49122,0.676551 0.565132,1.629519 z m -6.073064,0.667157 q -0.727315,1.512683 -0.524437,2.674448 0.213913,1.157896 1.301852,1.68099 1.087939,0.523093 2.125903,-0.03289 1.041546,-0.563433 1.76886,-2.076116 0.727314,-1.512683 0.513402,-2.670579 -0.210329,-1.165348 -1.298269,-1.688441 -1.087939,-0.523093 -2.129485,0.04034 -1.030512,0.559563 -1.757826,2.072246 z"
         style="font-size:16.93333244px;text-align:center;text-anchor:middle;fill:#000000;fill-opacity:1;stroke-width:0.26458332"
         id="path4641" />
      <path
         d="m 82.750582,46.258794 -0.391499,0.63283 -5.9486,-3.680093 q -0.742121,1.388174 -0.459913,2.535018 0.293589,1.144161 1.580343,1.94021 0.745333,0.461099 1.554545,0.708931 0.816244,0.252181 1.731525,0.312845 l -0.756898,1.223471 q -0.878813,-0.135328 -1.705782,-0.433036 -0.82697,-0.297707 -1.579334,-0.763156 -1.884427,-1.165798 -2.309765,-2.945651 -0.418306,-1.775504 0.738792,-3.645868 1.196247,-1.933646 2.937249,-2.42191 1.752384,-0.490945 3.524307,0.605253 1.589106,0.983098 1.875126,2.579538 0.297402,1.593758 -0.790096,3.351618 z m -1.058886,-1.180096 q 0.642786,-1.070448 0.450676,-2.064327 -0.185079,-0.989529 -1.141356,-1.581128 -1.082842,-0.669899 -2.115215,-0.462712 -1.025342,0.211536 -1.811081,1.261604 z"
         style="font-size:16.93333244px;text-align:center;text-anchor:middle;fill:#000000;fill-opacity:1;stroke-width:0.26458332"
         id="path4643" />
    </g>
    <g
       aria-label="Challenge"
       style="font-style:normal;font-weight:normal;font-size:10.58333302px;line-height:1.25;font-family:sans-serif;letter-spacing:0px;word-spacing:0px;fill:#000000;fill-opacity:1;stroke:none;stroke-width:0.26458332"
       id="text4546">
      <path
         d="m -9.6755979,55.747722 0.3415341,1.727698 q -0.9796762,-0.607018 -1.9959442,-0.802248 -1.008157,-0.196833 -2.062621,0.01161 -2.076483,0.410483 -2.927874,1.902019 -0.852994,1.483426 -0.378374,3.884359 0.473017,2.392823 1.827889,3.448222 1.35327,1.047288 3.429753,0.636806 1.054464,-0.208448 1.9118968,-0.774074 0.8655444,-0.567229 1.5405657,-1.50135 l 0.3383272,1.711476 q -0.7443457,0.753976 -1.6518617,1.236792 -0.899405,0.481212 -1.970091,0.692867 -2.749718,0.543568 -4.663328,-0.822791 -1.915212,-1.374471 -2.49085,-4.286414 -0.57724,-2.920054 0.672543,-4.911757 1.248179,-1.999814 3.997896,-2.543383 1.08691,-0.214862 2.101762,-0.112063 1.021361,0.09308 1.9787771,0.502226 z"
         style="font-size:16.93333244px;text-align:center;text-anchor:middle;fill:#000000;fill-opacity:1;stroke-width:0.26458332"
         id="path4646" />
      <path
         d="m 1.9407419,60.00506 0.7302184,5.541418 -1.5083148,0.198757 -0.72373722,-5.492233 q -0.17175255,-1.303381 -0.76532524,-1.884 -0.5935727,-0.580619 -1.61004574,-0.446673 -1.2214071,0.16095 -1.8237609,1.032597 -0.6023538,0.871647 -0.4252002,2.216015 l 0.6837696,5.188931 -1.5165122,0.199838 -1.6807986,-12.755098 1.5165122,-0.199837 0.6589249,5.000391 q 0.4319253,-0.899227 1.1074804,-1.405233 0.6837524,-0.507087 1.6428439,-0.633471 1.58209114,-0.208479 2.52325467,0.668264 0.94008333,0.868546 1.19069083,2.770334 z"
         style="font-size:16.93333244px;text-align:center;text-anchor:middle;fill:#000000;fill-opacity:1;stroke-width:0.26458332"
         id="path4648" />
      <path
         d="m 9.5744251,60.304862 q -1.8391061,0.131691 -2.51824,0.603081 -0.6791338,0.47139 -0.6064968,1.485784 0.057873,0.808218 0.6199402,1.248755 0.5697234,0.4317 1.4851529,0.36615 1.2618082,-0.09035 1.9567636,-1.035372 0.702612,-0.953856 0.596314,-2.438336 l -0.02421,-0.338132 z m 2.9818089,-0.843511 0.377358,5.269905 -1.517468,0.10866 -0.100393,-1.402009 q -0.459333,0.87841 -1.205624,1.33803 Q 9.3632241,65.22731 8.2416168,65.307624 6.8231135,65.409197 5.9252157,64.67771 5.0349745,63.937385 4.9393062,62.601353 4.8276931,61.042649 5.810137,60.176517 6.8008279,59.309795 8.8708531,59.161569 l 2.1277549,-0.152361 -0.01063,-0.148448 q -0.075,-1.047383 -0.808504,-1.566828 Q 9.4536256,56.765649 8.2083116,56.854821 7.4165888,56.911514 6.6796841,57.154937 5.9427794,57.39836 5.277187,57.827333 L 5.1767944,56.425324 q 0.8099271,-0.381283 1.5821824,-0.594079 0.7716648,-0.221044 1.5139049,-0.274194 2.0040483,-0.143502 3.0681103,0.824769 1.064062,0.968271 1.215242,3.079531 z"
         style="font-size:16.93333244px;text-align:center;text-anchor:middle;fill:#000000;fill-opacity:1;stroke-width:0.26458332"
         id="path4650" />
      <path
         d="m 15.693665,51.773889 1.520686,-0.04508 0.381262,12.859713 -1.520686,0.04509 z"
         style="font-size:16.93333244px;text-align:center;text-anchor:middle;fill:#000000;fill-opacity:1;stroke-width:0.26458332"
         id="path4652" />
      <path
         d="m 20.718492,51.670254 1.521342,-0.0061 0.05167,12.86526 -1.521342,0.0061 z"
         style="font-size:16.93333244px;text-align:center;text-anchor:middle;fill:#000000;fill-opacity:1;stroke-width:0.26458332"
         id="path4654" />
      <path
         d="m 33.56505,59.804806 -0.02702,0.74365 -6.990308,-0.253989 q 0.04211,1.57353 0.854892,2.430431 0.821344,0.848937 2.333432,0.903878 0.875854,0.03182 1.701675,-0.153286 0.834083,-0.18481 1.659447,-0.585053 l -0.05224,1.437723 q -0.830624,0.317315 -1.696558,0.467873 -0.865934,0.150558 -1.750051,0.118434 -2.214424,-0.08046 -3.464845,-1.416588 -1.242158,-1.335828 -1.162299,-3.533726 0.08256,-2.272264 1.353788,-3.558138 1.27979,-1.293836 3.362009,-1.21818 1.867388,0.06785 2.905979,1.313545 1.047154,1.237732 0.972099,3.303426 z m -1.504139,-0.501431 q 0.02881,-1.24828 -0.629983,-2.016848 -0.650527,-0.768268 -1.774265,-0.809099 -1.272467,-0.04623 -2.067025,0.644707 -0.786295,0.691241 -0.949409,1.992556 z"
         style="font-size:16.93333244px;text-align:center;text-anchor:middle;fill:#000000;fill-opacity:1;stroke-width:0.26458332"
         id="path4656" />
      <path
         d="m 44.048733,60.120877 -0.507219,5.566261 -1.515077,-0.13806 0.502717,-5.516856 q 0.119302,-1.309224 -0.331937,-2.006239 -0.45124,-0.697015 -1.47227,-0.790055 -1.226883,-0.111798 -2.006297,0.605914 -0.779415,0.717713 -0.902468,2.068108 l -0.474955,5.212193 -1.523311,-0.13881 0.840363,-9.222206 1.523311,0.13881 -0.130556,1.432735 q 0.619234,-0.782124 1.389586,-1.12705 0.778587,-0.344177 1.741978,-0.256389 1.589184,0.144813 2.314322,1.207189 0.725889,1.054141 0.551813,2.964455 z"
         style="font-size:16.93333244px;text-align:center;text-anchor:middle;fill:#000000;fill-opacity:1;stroke-width:0.26458332"
         id="path4658" />
      <path
         d="m 53.280613,62.23419 q 0.236505,-1.636646 -0.312625,-2.634951 -0.540947,-0.997122 -1.760249,-1.173318 -1.211118,-0.175014 -2.020403,0.626992 -0.801103,0.803188 -1.037608,2.439834 -0.235322,1.628463 0.305625,2.625585 0.549131,0.998305 1.760249,1.173318 1.219301,0.176197 2.020403,-0.626992 0.809286,-0.802005 1.044608,-2.430468 z m 0.992499,3.769106 q -0.338202,2.340404 -1.541843,3.327692 -1.204823,0.995471 -3.34883,0.68565 -0.793773,-0.114705 -1.479793,-0.33915 -0.687202,-0.216263 -1.314568,-0.557544 l 0.211672,-1.464798 q 0.61081,0.455847 1.232453,0.721114 0.621642,0.265267 1.292666,0.362234 1.481165,0.214037 2.329995,-0.456943 0.847648,-0.662796 1.07351,-2.225793 l 0.10761,-0.744674 q -0.583514,0.742736 -1.369765,1.03847 -0.786251,0.295733 -1.800971,0.1491 -1.685746,-0.2436 -2.531176,-1.677365 -0.845431,-1.433765 -0.539157,-3.553221 0.307456,-2.12764 1.524199,-3.263409 1.216743,-1.135769 2.902489,-0.892169 1.01472,0.146633 1.685084,0.652856 0.670364,0.506223 1.019738,1.383766 l 0.201029,-1.391149 1.505714,0.217585 z"
         style="font-size:16.93333244px;text-align:center;text-anchor:middle;fill:#000000;fill-opacity:1;stroke-width:0.26458332"
         id="path4660" />
      <path
         d="m 65.930563,64.270121 -0.14225,0.730418 -6.865928,-1.337144 q -0.202915,1.56096 0.466837,2.533751 0.679448,0.966256 2.164631,1.255497 0.86027,0.167538 1.704824,0.113002 0.85267,-0.05295 1.730203,-0.32008 l -0.275016,1.412141 q -0.869843,0.184388 -1.748653,0.198557 -0.878811,0.01417 -1.747197,-0.154949 -2.175022,-0.423587 -3.20263,-1.937791 -1.019492,-1.512623 -0.599066,-3.671414 0.434651,-2.231832 1.890251,-3.304547 1.465296,-1.079251 3.510466,-0.680953 1.834161,0.357204 2.666565,1.749156 0.8421,1.385417 0.446963,3.414356 z m -1.40795,-0.729072 q 0.222432,-1.22864 -0.308927,-2.090243 -0.523242,-0.860023 -1.626985,-1.074978 -1.249826,-0.243404 -2.142099,0.315675 -0.884157,0.56066 -1.247504,1.820822 z"
         style="font-size:16.93333244px;text-align:center;text-anchor:middle;fill:#000000;fill-opacity:1;stroke-width:0.26458332"
         id="path4662" />
    </g>
    <text
       xml:space="preserve"
       style="font-style:normal;font-weight:normal;font-size:10.58333302px;line-height:1.25;font-family:sans-serif;letter-spacing:0px;word-spacing:0px;fill:#ffffff;fill-opacity:1;stroke:none;stroke-width:0.26458332"
       id="text4552"><textPath
         xlink:href="#path4591"
         id="textPath4593"
         style="font-size:12.69999981px">What will you discover?</textPath></text>
    <path
       style="fill:none;stroke:#000000;stroke-width:0.26458332px;stroke-linecap:butt;stroke-linejoin:miter;stroke-opacity:1"
       d="m -49.840118,112.64043 c 23.06775,14.76892 110.849978,16.6927 148.658788,0.0537"
       id="path4591"
       inkscape:connector-curvature="0"
       sodipodi:nodetypes="cc" />
    <path
       style="fill:none;stroke:#f6f6f6;stroke-width:0.26458332px;stroke-linecap:butt;stroke-linejoin:miter;stroke-opacity:1"
       d="m -30.635251,72.528543 c 36.3486568,-11.29095 72.697311,-10.01678 109.045971,0"
       id="path4598"
       inkscape:connector-curvature="0"
       sodipodi:nodetypes="cc" />
    <path
       style="fill:none;stroke:#f2f2f2;stroke-width:0.26458332px;stroke-linecap:butt;stroke-linejoin:miter;stroke-opacity:1"
       d="M -37.598329,55.153343 C -3.5386912,28.983731 47.23228,23.776768 86.94928,55.687873"
       id="path4598-3"
       inkscape:connector-curvature="0"
       sodipodi:nodetypes="cc" />
  </g>
</svg>
